
newmtl 0.BaseMaterial
Kd  0.58799996 0.58799996 0.58799996
Ks  0.2 0.2 0.2
Ka  00 00 00
d  01
Ns  00
illum 2
map_Kd DESKtopT.png




newmtl 1.BaseMaterial
Kd  01 01 01
Ks  0.2 0.2 0.2
Ka  00 00 00
d  01
Ns  00
illum 2
map_Kd DESKgenT.png




newmtl 2.BaseMaterial
Kd  0.05879993 0.1372999 0.19609988
Ks  0.2 0.2 0.2
Ka  00 00 00
d  01
Ns  00
illum 2




newmtl 3.BaseMaterial
Kd  0.8 0.8 0.8
Ks  0.2 0.2 0.2
Ka  00 00 00
d  01
Ns  00
illum 2
map_Kd stengel.png




newmtl 4.BaseMaterial
Kd  01 01 01
Ks  0.2 0.2 0.2
Ka  00 00 00
d  01
Ns  00
illum 2



