%YAML 1.1
%TAG !u! tag:unity3d.com,2011:
--- !u!114 &3059807574004420925
MonoBehaviour:
  m_ObjectHideFlags: 0
  m_CorrespondingSourceObject: {fileID: 0}
  m_PrefabInstance: {fileID: 0}
  m_PrefabAsset: {fileID: 0}
  m_GameObject: {fileID: 4388926296614877069}
  m_Enabled: 1
  m_EditorHideFlags: 0
  m_Script: {fileID: 11500000, guid: bef8a15aebda6b84fa84976ba9af25a7, type: 3}
  m_Name: 
  m_EditorClassIdentifier: 
  SliceableType: 1
  SliceMaterial: {fileID: 0}
--- !u!114 &2501813031047383813
MonoBehaviour:
  m_ObjectHideFlags: 0
  m_CorrespondingSourceObject: {fileID: 0}
  m_PrefabInstance: {fileID: 0}
  m_PrefabAsset: {fileID: 0}
  m_GameObject: {fileID: 4388926296614877069}
  m_Enabled: 1
  m_EditorHideFlags: 0
  m_Script: {fileID: 11500000, guid: f73f4fc8ac3ed5d4ca839dff2f27f6bb, type: 3}
  m_Name: 
  m_EditorClassIdentifier: 
--- !u!1001 &3059807572695027132
PrefabInstance:
  m_ObjectHideFlags: 0
  serializedVersion: 2
  m_Modification:
    m_TransformParent: {fileID: 0}
    m_Modifications:
    - target: {fileID: 219607422, guid: 6c8f90c3ca394c648ad94bfb902dbb40, type: 3}
      propertyPath: m_Constraints
      value: 0
      objectReference: {fileID: 0}
    - target: {fileID: 1629748842739022385, guid: 6c8f90c3ca394c648ad94bfb902dbb40,
        type: 3}
      propertyPath: m_Name
      value: Stone_G
      objectReference: {fileID: 0}
    - target: {fileID: 1629748842739022389, guid: 6c8f90c3ca394c648ad94bfb902dbb40,
        type: 3}
      propertyPath: m_LocalPosition.x
      value: -2.48
      objectReference: {fileID: 0}
    - target: {fileID: 1629748842739022389, guid: 6c8f90c3ca394c648ad94bfb902dbb40,
        type: 3}
      propertyPath: m_LocalPosition.y
      value: 0.86
      objectReference: {fileID: 0}
    - target: {fileID: 1629748842739022389, guid: 6c8f90c3ca394c648ad94bfb902dbb40,
        type: 3}
      propertyPath: m_LocalPosition.z
      value: -0.505
      objectReference: {fileID: 0}
    - target: {fileID: 1629748842739022389, guid: 6c8f90c3ca394c648ad94bfb902dbb40,
        type: 3}
      propertyPath: m_LocalRotation.x
      value: 0
      objectReference: {fileID: 0}
    - target: {fileID: 1629748842739022389, guid: 6c8f90c3ca394c648ad94bfb902dbb40,
        type: 3}
      propertyPath: m_LocalRotation.y
      value: 0
      objectReference: {fileID: 0}
    - target: {fileID: 1629748842739022389, guid: 6c8f90c3ca394c648ad94bfb902dbb40,
        type: 3}
      propertyPath: m_LocalRotation.z
      value: 0
      objectReference: {fileID: 0}
    - target: {fileID: 1629748842739022389, guid: 6c8f90c3ca394c648ad94bfb902dbb40,
        type: 3}
      propertyPath: m_LocalRotation.w
      value: 1
      objectReference: {fileID: 0}
    - target: {fileID: 1629748842739022389, guid: 6c8f90c3ca394c648ad94bfb902dbb40,
        type: 3}
      propertyPath: m_RootOrder
      value: 0
      objectReference: {fileID: 0}
    - target: {fileID: 1629748842739022389, guid: 6c8f90c3ca394c648ad94bfb902dbb40,
        type: 3}
      propertyPath: m_LocalEulerAnglesHint.x
      value: 0
      objectReference: {fileID: 0}
    - target: {fileID: 1629748842739022389, guid: 6c8f90c3ca394c648ad94bfb902dbb40,
        type: 3}
      propertyPath: m_LocalEulerAnglesHint.y
      value: 0
      objectReference: {fileID: 0}
    - target: {fileID: 1629748842739022389, guid: 6c8f90c3ca394c648ad94bfb902dbb40,
        type: 3}
      propertyPath: m_LocalEulerAnglesHint.z
      value: 0
      objectReference: {fileID: 0}
    - target: {fileID: 1629748842739022391, guid: 6c8f90c3ca394c648ad94bfb902dbb40,
        type: 3}
      propertyPath: m_Materials.Array.data[0]
      value: 
      objectReference: {fileID: 2100000, guid: 1cb5a4a0e60ad6a489cd417ef692c987, type: 2}
    - target: {fileID: 4000842666270724746, guid: 6c8f90c3ca394c648ad94bfb902dbb40,
        type: 3}
      propertyPath: SliceMaterial
      value: 
      objectReference: {fileID: 2100000, guid: 23a9b1fb662118e419fd5d9291224463, type: 2}
    m_RemovedComponents:
    - {fileID: 1914494081, guid: 6c8f90c3ca394c648ad94bfb902dbb40, type: 3}
  m_SourcePrefab: {fileID: 100100000, guid: 6c8f90c3ca394c648ad94bfb902dbb40, type: 3}
--- !u!1 &4388926296614877069 stripped
GameObject:
  m_CorrespondingSourceObject: {fileID: 1629748842739022385, guid: 6c8f90c3ca394c648ad94bfb902dbb40,
    type: 3}
  m_PrefabInstance: {fileID: 3059807572695027132}
  m_PrefabAsset: {fileID: 0}
